MODELO;TEJIDO;REF.COLOR;COLOR;PRECIO;26;27;37;38;39;40;M;S;TOTAL;"TOTAL €"
PA2350;T12914;CHK;Nude;256;1;1;;;;;;;2;512
ACK098;TF0250;CHK;Black;589;;;1;;;;;;1;589
CAK243;TF0252;CHK;Black;552;;;1;1;;;;;2;1104
MAK563;TF0250;CHK;Chalk;367;;;1;1;;;;;2;734
PS0170;T53901;CHK;Chalk;1108;;;;1;;;;;2;2216
AB100A;T55958;CHK;Chalk;1330;;;;;;;;;1;1330
CA3050;T12912;CHK;Chalk;367;;;;;;;;;2;734
AC9720;T12912;CHK;Chalk;738;;;;;;;;;2;1476
GC4790;T12915;CHK;Chalk;256;;;;;;;;;1;256
ACJ159;T57259;CHK;Black;1849;;;;;;;;;1;1849
TSJ176;T57259;CHK;Nude;738;;;;;;;;;1;738
W1581R;SCA;CHK;Black;392;;;;;;;;;2;784
W1660T;SCA;CHK;Chalk;288;;;;;;;;;4;1152
