MODELO;TEJIDO;REF.COLOR;COLOR;PRECIO;5.5;6;6.5;7;7.5;8;8.5;9;9.5;10;10.5;11;TOTAL;"TOTAL €"
HXM3710AS50HG0;" ";@U806;"NERA ANTE";131;;1;1;;;;;;;;;;2;262
HXM3930AM00JFKB999;" ";@U806;NEGRA;153;;1;;2;2;2;2;2;1;1;1;;14;2142
HXM3710AQ10JIU;" ";@U806;CAMU;131;1;;1;1;2;2;2;2;1;1;;;13;1703
HXM3710AJ11JFZ;" ";@U806;"NERO CON ROJO";131;;1;1;2;1;2;2;2;1;1;1;;14;1834
HXM3710AM20JFX;" ";@U806;BLANCA;145;;1;1;2;2;2;2;2;1;1;;;14;2030
HXM3710AM20JFY;" ";@U806;@AZUL;145;1;;1;2;2;2;1;1;1;1;;;12;1740
HXM3210Y850JBY;" ";@U806;AZUL;129;1;1;1;2;2;3;2;2;1;2;1;1;19;2451
HXM3210Y860JBV;" ";@U806;KAKI;129;;1;1;2;2;2;2;2;1;1;1;1;16;2064
HXM3830AN50JHM;" ";@U806;"AZUL BANDERA FRANCESA";119;1;;1;2;2;2;2;2;1;1;1;;15;1785
HXM00N0J5906RN;" ";@U806;AZUL;145;1;1;1;2;2;2;2;2;1;1;1;;16;2320
HXM3710AT80HK1;" ";@U806;KAKI;131;;2;1;2;2;2;2;1;1;1;;;14;1834
HXM3710AS506Q6;" ";@U806;"GRANATE BROGUE";131;1;1;1;2;3;2;2;2;1;1;1;1;18;2358
HXM3930AL90JFMB999;" ";@U806;NERO;173;;1;1;1;2;2;2;1;1;1;;;12;2076
HXM3930W3626NDS816;" ";@U806;"MARRON BROGUE";145;1;;1;1;1;2;1;1;1;1;;;10;1450
HXM3930W36297HU806;" ";@U806;"AZUL NOBUC";131;;1;1;2;2;2;2;2;1;2;1;;16;2096
