MODELO;TEJIDO;REF.COLOR;COLOR;PRECIO;35.5;36;36.5;37;37.5;38;38.5;39;39.5;40;40.5;41;UNIC;TOTAL;"TOTAL €"
3180286;NAPPA;@CM4H;BLACK;286;;1;1;;;;;;;;;;;2;572
"3160512 PIGALLE PL";PATENT;@CM4H;BLACK;248;1;;;2;2;2;2;2;1;1;;1;;14;3472
"3180483 ANEMOSEA";NAPPA;@CM4H;BLACK;229;1;1;2;2;2;2;2;1;1;1;1;1;;17;3893
"3180437 DRAMA 70";PATENT;@CM4H;BLACK/SILVER;267;1;1;2;2;2;2;2;2;1;1;1;1;;18;4806
"3180441 FOSSILIZA";GLITTER;@CM4H;"VERSION LIGHT GOLD";267;1;2;2;2;2;2;2;2;1;1;1;1;;19;5073
"3180260 WONDER";NAPPA;@CM4H;"VERSION BLACK";267;1;1;1;2;2;1;1;1;1;1;1;1;;14;3738
"3185079 PALOMA";CALF;@CM4H;BLACK;170;;1;2;2;2;2;2;2;2;1;1;1;4;22;3740
"3175224 PANETTONE W";CALF/SPIKES;@CM4H;BLACK;225;;;;;;;;;;;;;3;3;675
"3185020 LOUBIBLUES";SUEDE;@CM4H;BLACK/BLACK;600;;;;;;;;;;;;;2;2;1200
"1175018 PALOMA CLU";CALF;@CM4H;BLACK/RED;411;;;;;;;;;;;;;2;2;822
"3185092 RUBYLOU";PATENT;@CM4H;BLACK/MULTIMETAL;336;;;;;;;;;;;;;3;3;1008
"3180089 CHOCA";"SUEDE LAME";@CM4H;BLACK;267;;1;;;;;;;;;;;;1;267
3120836;PATENT;@CM4H;LOUBI;210;1;;1;2;2;2;2;2;1;1;;1;;15;3150
"3180553 DRAMA";SUEDE;@CM4H;BLACK;267;1;1;1;2;2;2;2;2;1;1;;1;;16;4272
"3130694 SO KATE";PATENT;@CM4H;BLACK;210;1;1;2;2;2;2;2;2;1;1;1;1;;18;3780
"3185118 PANETTONE K";CALF;@CM4H;BLACK/GOLD;94;;1;1;2;2;2;2;2;1;1;1;1;7;23;2162
"3185081 PALOMA MINI";CALF;@CM4H;BLACK;111;;;;;;;;;;;;;4;4;444
"5185068 BOUDOIR W";CALF;@CM4H;BLACK;245;;;;;;;;;;;;;3;3;735
"3185008 BACKLOUBI";JACQUARD;@CM4H;BLACK/MULTI;449;;;;;;;;;;;;;2;2;898
"3185091 RUBYLOU";SUEDE;@CM4H;BLACK/RED;336;;;;;;;;;;;;;3;3;1008
